<?xml version="1.0" encoding="UTF-8" standalone="no"?>
<!-- Created with Inkscape (http://www.inkscape.org/) -->

<svg
   width="1080"
   height="1920"
   viewBox="0 0 285.75 508"
   version="1.1"
   id="svg5"
   inkscape:version="1.1.1 (26b7af14f2, 2022-01-19)"
   sodipodi:docname="Desktop.svg"
   xmlns:inkscape="http://www.inkscape.org/namespaces/inkscape"
   xmlns:sodipodi="http://sodipodi.sourceforge.net/DTD/sodipodi-0.dtd"
   xmlns="http://www.w3.org/2000/svg"
   xmlns:svg="http://www.w3.org/2000/svg">
  <sodipodi:namedview
     id="namedview7"
     pagecolor="#505050"
     bordercolor="#eeeeee"
     borderopacity="1"
     inkscape:pageshadow="0"
     inkscape:pageopacity="0"
     inkscape:pagecheckerboard="0"
     inkscape:document-units="px"
     showgrid="false"
     units="px"
     showguides="true"
     inkscape:guide-bbox="true"
     inkscape:zoom="0.20850623"
     inkscape:cx="1143.8507"
     inkscape:cy="975.99002"
     inkscape:window-width="1600"
     inkscape:window-height="843"
     inkscape:window-x="0"
     inkscape:window-y="0"
     inkscape:window-maximized="1"
     inkscape:current-layer="layer1" />
  <defs
     id="defs2">
    <rect
       x="217.78889"
       y="664.27971"
       width="717.63472"
       height="95.046848"
       id="rect82779" />
    <rect
       x="206.3559"
       y="305.77993"
       width="713.27693"
       height="138.65917"
       id="rect74175" />
    <rect
       x="208.52309"
       y="96.936626"
       width="689.07641"
       height="91.192766"
       id="rect41517" />
    <filter
       style="color-interpolation-filters:sRGB;"
       inkscape:label="Greyscale"
       id="filter47"
       x="0"
       y="0"
       width="1"
       height="1">
      <feColorMatrix
         values="0.21 0.72 0.072 0 0 0.21 0.72 0.072 0 0 0.21 0.72 0.072 0 0 0 0 0 1 0 "
         id="feColorMatrix45" />
    </filter>
    <filter
       style="color-interpolation-filters:sRGB;"
       inkscape:label="Greyscale"
       id="filter51"
       x="0"
       y="0"
       width="1"
       height="1">
      <feColorMatrix
         values="0.21 0.72 0.072 0 0 0.21 0.72 0.072 0 0 0.21 0.72 0.072 0 0 0 0 0 1 0 "
         id="feColorMatrix49" />
    </filter>
    <filter
       style="color-interpolation-filters:sRGB;"
       inkscape:label="Greyscale"
       id="filter55"
       x="0"
       y="0"
       width="1"
       height="1">
      <feColorMatrix
         values="0.21 0.72 0.072 0 0 0.21 0.72 0.072 0 0 0.21 0.72 0.072 0 0 0 0 0 1 0 "
         id="feColorMatrix53" />
    </filter>
    <filter
       style="color-interpolation-filters:sRGB;"
       inkscape:label="Greyscale"
       id="filter59"
       x="0"
       y="0"
       width="1"
       height="1">
      <feColorMatrix
         values="0.21 0.72 0.072 0 0 0.21 0.72 0.072 0 0 0.21 0.72 0.072 0 0 0 0 0 1 0 "
         id="feColorMatrix57" />
    </filter>
    <filter
       style="color-interpolation-filters:sRGB;"
       inkscape:label="Greyscale"
       id="filter63"
       x="0"
       y="0"
       width="1"
       height="1">
      <feColorMatrix
         values="0.21 0.72 0.072 0 0 0.21 0.72 0.072 0 0 0.21 0.72 0.072 0 0 0 0 0 1 0 "
         id="feColorMatrix61" />
    </filter>
    <filter
       style="color-interpolation-filters:sRGB;"
       inkscape:label="Greyscale"
       id="filter67"
       x="0"
       y="0"
       width="1"
       height="1">
      <feColorMatrix
         values="0.21 0.72 0.072 0 0 0.21 0.72 0.072 0 0 0.21 0.72 0.072 0 0 0 0 0 1 0 "
         id="feColorMatrix65" />
    </filter>
    <filter
       style="color-interpolation-filters:sRGB;"
       inkscape:label="Greyscale"
       id="filter71"
       x="0"
       y="0"
       width="1"
       height="1">
      <feColorMatrix
         values="0.21 0.72 0.072 0 0 0.21 0.72 0.072 0 0 0.21 0.72 0.072 0 0 0 0 0 1 0 "
         id="feColorMatrix69" />
    </filter>
    <filter
       style="color-interpolation-filters:sRGB;"
       inkscape:label="Greyscale"
       id="filter75"
       x="0"
       y="0"
       width="1"
       height="1">
      <feColorMatrix
         values="0.21 0.72 0.072 0 0 0.21 0.72 0.072 0 0 0.21 0.72 0.072 0 0 0 0 0 1 0 "
         id="feColorMatrix73" />
    </filter>
    <filter
       style="color-interpolation-filters:sRGB;"
       inkscape:label="Greyscale"
       id="filter79"
       x="-0.00040350667"
       y="-0.00012767204"
       width="1.000807"
       height="1.0002553">
      <feColorMatrix
         values="0.21 0.72 0.072 0 0 0.21 0.72 0.072 0 0 0.21 0.72 0.072 0 0 0 0 0 1 0 "
         id="feColorMatrix77" />
    </filter>
    <filter
       style="color-interpolation-filters:sRGB;"
       inkscape:label="Greyscale"
       id="filter83"
       x="-0.00040350667"
       y="-0.00012767204"
       width="1.000807"
       height="1.0002553">
      <feColorMatrix
         values="0.21 0.72 0.072 0 0 0.21 0.72 0.072 0 0 0.21 0.72 0.072 0 0 0 0 0 1 0 "
         id="feColorMatrix81" />
    </filter>
    <filter
       style="color-interpolation-filters:sRGB;"
       inkscape:label="Greyscale"
       id="filter87"
       x="0"
       y="0"
       width="1"
       height="1">
      <feColorMatrix
         values="0.21 0.72 0.072 0 0 0.21 0.72 0.072 0 0 0.21 0.72 0.072 0 0 0 0 0 1 0 "
         id="feColorMatrix85" />
    </filter>
  </defs>
  <g
     inkscape:label="Layer 1"
     inkscape:groupmode="layer"
     id="layer1">
    <rect
       style="fill:#ffffff;fill-opacity:1;stroke-width:0.267641;filter:url(#filter87)"
       id="rect31"
       width="285.75"
       height="508"
       x="0"
       y="0" />
    <path
       style="fill:none;stroke:#000000;stroke-width:0.264583px;stroke-linecap:butt;stroke-linejoin:miter;stroke-opacity:1;filter:url(#filter83)"
       d="M 0,507.99999 C 285.75,0 285.75,0 285.75,0 Z"
       id="path1450" />
    <path
       style="fill:none;stroke:#000000;stroke-width:0.264583px;stroke-linecap:butt;stroke-linejoin:miter;stroke-opacity:1;filter:url(#filter79)"
       d="M 0,0 285.75,507.99999 Z"
       id="path1452" />
    <rect
       style="fill:#1fffff;fill-opacity:1;stroke-width:0.331939;filter:url(#filter75)"
       id="rect36901"
       width="182.31813"
       height="24.128086"
       x="55.171734"
       y="25.647816" />
    <text
       xml:space="preserve"
       transform="matrix(0.48432896,0,0,0.50440793,-46.568905,-24.404963)"
       id="text41515"
       style="font-style:normal;font-weight:normal;font-size:40px;line-height:1.25;font-family:sans-serif;white-space:pre;shape-inside:url(#rect41517);fill:#000000;fill-opacity:1;stroke:none;filter:url(#filter71)"><tspan
         x="208.52344"
         y="132.32812"
         id="tspan216">umbrella | Flip-flop
</tspan></text>
    <rect
       style="fill:#1fffff;fill-opacity:1;stroke-width:0.203832;filter:url(#filter67)"
       id="rect69397"
       width="188.72119"
       height="21.773777"
       x="54.598331"
       y="80.904274" />
    <text
       xml:space="preserve"
       transform="matrix(0.2976979,0,0,0.39158156,34.546283,-39.33718)"
       id="text74173"
       style="font-style:normal;font-weight:normal;font-size:40px;line-height:1.25;font-family:sans-serif;white-space:pre;shape-inside:url(#rect74175);fill:#000000;fill-opacity:1;stroke:none;filter:url(#filter63)"><tspan
         x="206.35547"
         y="341.16992"
         id="tspan218">Where are you?</tspan></text>
    <rect
       style="fill:#1fff13;fill-opacity:1;stroke-width:0.264583"
       id="rect78395"
       width="188.16205"
       height="30.304007"
       x="56.662731"
       y="132.05002"
       sodipodi:insensitive="true" />
    <rect
       style="fill:#00ffff;fill-opacity:1;stroke-width:0.211534"
       id="rect78463"
       width="121.36725"
       height="25.147806"
       x="84.987183"
       y="171.17462"
       sodipodi:insensitive="true" />
    <text
       xml:space="preserve"
       transform="matrix(0.36059394,0,0,0.39842205,9.7741242,-88.473856)"
       id="text82777"
       style="font-style:normal;font-weight:normal;font-size:40px;line-height:1.25;font-family:sans-serif;white-space:pre;shape-inside:url(#rect82779);fill:#000000;fill-opacity:1;stroke:none"
       sodipodi:insensitive="true"><tspan
         x="217.78906"
         y="699.66992"
         id="tspan220">Or use GPS?</tspan></text>
    <circle
       style="fill:#000080;fill-opacity:1;stroke-width:0.264583"
       id="path88463"
       cx="187.35776"
       cy="185.6622"
       r="5.2234178"
       sodipodi:insensitive="true" />
    <rect
       style="fill:#ffff00;fill-opacity:1;stroke-width:0.264583;filter:url(#filter59)"
       id="rect88686"
       width="235.42009"
       height="227.37579"
       x="24.608656"
       y="255.60851" />
    <rect
       style="fill:#008000;fill-opacity:1;stroke-width:0.264583;filter:url(#filter55)"
       id="rect88838"
       width="200.00134"
       height="58.436325"
       x="37.626785"
       y="283.22473" />
    <rect
       style="fill:#008000;fill-opacity:1;stroke-width:0.264583;filter:url(#filter51)"
       id="rect88840"
       width="194.98763"
       height="51.102802"
       x="39.804806"
       y="363.10123" />
    <rect
       style="fill:#008000;fill-opacity:1;stroke-width:0.264583;filter:url(#filter47)"
       id="rect88842"
       width="195.70346"
       height="35.516457"
       x="39.114258"
       y="434.68723" />
  </g>
</svg>
