<?xml version="1.0" encoding="UTF-8" standalone="no"?>
<!-- Created with Inkscape (http://www.inkscape.org/) -->

<svg
   width="400"
   height="900"
   viewBox="0 0 105.83332 238.12501"
   version="1.1"
   id="svg88927"
   inkscape:version="1.1.1 (26b7af14f2, 2022-01-19)"
   sodipodi:docname="mobile.svg"
   xmlns:inkscape="http://www.inkscape.org/namespaces/inkscape"
   xmlns:sodipodi="http://sodipodi.sourceforge.net/DTD/sodipodi-0.dtd"
   xmlns="http://www.w3.org/2000/svg"
   xmlns:svg="http://www.w3.org/2000/svg">
  <sodipodi:namedview
     id="namedview88929"
     pagecolor="#505050"
     bordercolor="#eeeeee"
     borderopacity="1"
     inkscape:pageshadow="0"
     inkscape:pageopacity="0"
     inkscape:pagecheckerboard="0"
     inkscape:document-units="px"
     showgrid="false"
     units="px"
     width="330mm"
     inkscape:zoom="0.58974467"
     inkscape:cx="1025.0199"
     inkscape:cy="353.54283"
     inkscape:window-width="1600"
     inkscape:window-height="843"
     inkscape:window-x="0"
     inkscape:window-y="0"
     inkscape:window-maximized="1"
     inkscape:current-layer="layer1" />
  <defs
     id="defs88924">
    <rect
       x="64.920205"
       y="200.32245"
       width="267.40458"
       height="78.302664"
       id="rect4149" />
  </defs>
  <g
     inkscape:label="Layer 1"
     inkscape:groupmode="layer"
     id="layer1">
    <rect
       style="fill:#ffffff;fill-opacity:1;stroke-width:0.111517"
       id="rect31"
       width="105.83333"
       height="238.12498"
       x="0.053935651"
       y="0.01122142" />
    <path
       style="fill:none;stroke:#000000;stroke-width:0.110185px;stroke-linecap:butt;stroke-linejoin:miter;stroke-opacity:1"
       d="M 0.05035128,238.1249 C 105.78298,0.02235916 105.78298,0.02235916 105.78298,0.02235916 Z"
       id="path1450" />
    <path
       style="fill:none;stroke:#000000;stroke-width:0.110181px;stroke-linecap:butt;stroke-linejoin:miter;stroke-opacity:1"
       d="M 0.05393565,0.01122142 105.77939,238.11377 Z"
       id="path1452" />
    <rect
       style="fill:#4d4d4d;fill-opacity:1;stroke-width:0.171239"
       id="rect78463"
       width="79.524094"
       height="25.150322"
       x="14.156479"
       y="13.628745" />
    <rect
       style="fill:#999999;stroke-width:0.264583"
       id="rect423"
       width="70.750793"
       height="20.717579"
       x="17.176804"
       y="53.00198" />
    <rect
       style="fill:#4d4d4d;stroke-width:0.264583"
       id="rect425"
       width="93.582047"
       height="21.452305"
       x="7.842555"
       y="143.21695" />
    <rect
       style="fill:#4d4d4d;stroke-width:0.264583"
       id="rect427"
       width="87.753265"
       height="22.967657"
       x="9.0052376"
       y="182.92365" />
    <rect
       style="fill:#4d4d4d;stroke-width:0.264583"
       id="rect429"
       width="86.627831"
       height="16.374611"
       x="9.3554087"
       y="215.54366" />
    <text
       xml:space="preserve"
       transform="scale(0.26458332)"
       id="text4147"
       style="fill:black;fill-opacity:1;line-height:1.25;stroke:none;font-family:sans-serif;font-style:normal;font-weight:normal;font-size:40px;white-space:pre;shape-inside:url(#rect4149)" />
    <rect
       style="fill:#999999;stroke-width:0.264583"
       id="rect8047"
       width="41.419941"
       height="14.624969"
       x="19.985682"
       y="85.820297" />
    <ellipse
       style="fill:#999999;stroke-width:0.264583"
       id="path8071"
       cx="78.606407"
       cy="92.742226"
       rx="6.3332472"
       ry="5.4508762" />
  </g>
</svg>
